Permutation Test – Ryan Mooney
…
colnames(tumor_data) <- c(
  "id", "diagnosis",
  "radius_mean", "texture_mean", "perimeter_mean", "area_mean", "smoothness_mean",
  "compactness_mean", "concavity_mean", "concave_points_mean", "symmetry_mean", "fractal_dimension_mean",
  
  "radius_se", "texture_se", "perimeter_se", "area_se", "smoothness_se",
  "compactness_se", "concavity_se", "concave_points_se", "symmetry_se", "fractal_dimension_se",
  
  "radius_worst", "texture_worst", "perimeter_worst", "area_worst", "smoothness_worst",
  "compactness_worst", "concavity_worst", "concave_points_worst", "symmetry_worst", "fractal_dimension_worst")

tumor_data

# A tibble: 568 × 32
         id diagnosis radius_mean texture_mean perimeter_mean area_mean
      <dbl> <chr>           <dbl>        <dbl>          <dbl>     <dbl>
 1   842517 M                20.6         17.8          133.      1326 
 2 84300903 M                19.7         21.2          130       1203 
 3 84348301 M                11.4         20.4           77.6      386.
 4 84358402 M                20.3         14.3          135.      1297 
 5   843786 M                12.4         15.7           82.6      477.
 6   844359 M                18.2         20.0          120.      1040 
 7 84458202 M                13.7         20.8           90.2      578.
 8   844981 M                13           21.8           87.5      520.
 9 84501001 M                12.5         24.0           84.0      476.
10   845636 M                16.0         23.2          103.       798.
# ℹ 558 more rows
# ℹ 26 more variables: smoothness_mean <dbl>, compactness_mean <dbl>,
#   concavity_mean <dbl>, concave_points_mean <dbl>, symmetry_mean <dbl>,
#   fractal_dimension_mean <dbl>, radius_se <dbl>, texture_se <dbl>,
#   perimeter_se <dbl>, area_se <dbl>, smoothness_se <dbl>,
#   compactness_se <dbl>, concavity_se <dbl>, concave_points_se <dbl>,
#   symmetry_se <dbl>, fractal_dimension_se <dbl>, radius_worst <dbl>, …
…
map(c(1:10000), perm_data, data = tumor_data) |> 
  list_rbind()

# A tibble: 10,000 × 3
   obs_mean_diff perm_mean_diff   rep
           <dbl>          <dbl> <int>
 1          515.          30.5      1
 2          515.         -12.6      2
 3          515.         -58.4      3
 4          515.          15.2      4
 5          515.         -34.7      5
 6          515.         -40.1      6
 7          515.           5.15     7
 8          515.         -46.0      8
 9          515.          27.5      9
10          515.         -31.0     10
# ℹ 9,990 more rows
…
