Simulation – Ryan Mooney
…
set.seed(4747)
prob_0 <- 0.001
n_cells <- 10000
number_of_divisions <- 1:50

results <- map(number_of_divisions, function(n) {
  outcomes <- map_lgl(1:n_cells, .f = ~ has_mutation(n_divisions = n, prob = prob_0))
  tibble(divisions = n, prob_mutated = mean(outcomes))
  }) |> 
  list_rbind()

results

# A tibble: 50 × 2
   divisions prob_mutated
       <int>        <dbl>
 1         1       0.0017
 2         2       0.0019
 3         3       0.0028
 4         4       0.0037
 5         5       0.005 
 6         6       0.0062
 7         7       0.0063
 8         8       0.0072
 9         9       0.01  
10        10       0.0086
# ℹ 40 more rows
…
set.seed(4747)
prob_1 <- 0.01
n_cells <- 10000
number_of_divisions <- 1:50

results_1 <- map(number_of_divisions, function(n) {
  outcomes <- map_lgl(1:n_cells, .f = ~ has_mutation(n_divisions = n, prob = prob_1))
  tibble(divisions_1 = n, prob_mutated_1 = mean(outcomes))
  }) |> 
  list_rbind()

results

# A tibble: 50 × 2
   divisions prob_mutated
       <int>        <dbl>
 1         1       0.0017
 2         2       0.0019
 3         3       0.0028
 4         4       0.0037
 5         5       0.005 
 6         6       0.0062
 7         7       0.0063
 8         8       0.0072
 9         9       0.01  
10        10       0.0086
# ℹ 40 more rows

results_1

# A tibble: 50 × 2
   divisions_1 prob_mutated_1
         <int>          <dbl>
 1           1         0.0104
 2           2         0.0204
 3           3         0.0296
 4           4         0.0379
 5           5         0.0481
 6           6         0.0566
 7           7         0.0696
 8           8         0.0764
 9           9         0.0876
10          10         0.0911
# ℹ 40 more rows
…
set.seed(4747)
prob_2 <- 1e-6
n_cells <- 10000
number_of_divisions <- 1:50

results_2 <- map(number_of_divisions, function(n) {
  outcomes <- map_lgl(1:n_cells, .f = ~ has_mutation(n_divisions = n, prob = prob_2))
  tibble(divisions_2 = n, prob_mutated_2 = mean(outcomes))
  }) |> 
  list_rbind()

results_2

# A tibble: 50 × 2
   divisions_2 prob_mutated_2
         <int>          <dbl>
 1           1              0
 2           2              0
 3           3              0
 4           4              0
 5           5              0
 6           6              0
 7           7              0
 8           8              0
 9           9              0
10          10              0
# ℹ 40 more rows
…
