Selected Literary Prizes – Ryan Mooney
…
ℹ Use `spec()` to retrieve the full column specification for this data.
ℹ Specify the column types or set `show_col_types = FALSE` to quiet this message.

We are going to make a sankey plot.

booker <- prizes |>
  filter(prize_name == "Booker Prize") |>
  ggsankey::make_long(gender, ethnicity_macro, highest_degree) 

Warning: attributes are not identical across measure variables; they will be
dropped

booker

# A tibble: 249 × 4
   x               node          next_x          next_node    
   <fct>           <chr>         <fct>           <chr>        
 1 gender          man           ethnicity_macro White British
 2 ethnicity_macro White British highest_degree  e Bachelors  
 3 highest_degree  e Bachelors   <NA>            <NA>         
 4 gender          man           ethnicity_macro Irish        
 5 ethnicity_macro Irish         highest_degree  e Bachelors  
 6 highest_degree  e Bachelors   <NA>            <NA>         
 7 gender          man           ethnicity_macro Asian        
 8 ethnicity_macro Asian         highest_degree  e Bachelors  
 9 highest_degree  e Bachelors   <NA>            <NA>         
10 gender          man           ethnicity_macro Asian        
# ℹ 239 more rows
…
bailey <- prizes |>
  filter(prize_name == "Baillie Gifford Prize for Non-Fiction") |>
  ggsankey::make_long(gender, ethnicity_macro, highest_degree) 

Warning: attributes are not identical across measure variables; they will be
dropped

bailey

# A tibble: 423 × 4
   x               node          next_x          next_node    
   <fct>           <chr>         <fct>           <chr>        
 1 gender          man           ethnicity_macro White British
 2 ethnicity_macro White British highest_degree  b unknown    
 3 highest_degree  b unknown     <NA>            <NA>         
 4 gender          man           ethnicity_macro Jewish       
 5 ethnicity_macro Jewish        highest_degree  b unknown    
 6 highest_degree  b unknown     <NA>            <NA>         
 7 gender          man           ethnicity_macro White British
 8 ethnicity_macro White British highest_degree  e Bachelors  
 9 highest_degree  e Bachelors   <NA>            <NA>         
10 gender          man           ethnicity_macro White British
# ℹ 413 more rows
…
